{
  "project_info": {
    "project_number": "526080166553",
    "firebase_url": "https://longsorbaru.firebaseio.com",
    "project_id": "longsorbaru",
    "storage_bucket": "longsorbaru.appspot.com"
  },
  "client": [
    {
      "client_info": {
        "mobilesdk_app_id": "1:526080166553:android:e851761c2bfca513f70608",
        "android_client_info": {
          "package_name": "com.example.monicayan.ewarp"
        }
      },
      "oauth_client": [
        {
          "client_id": "526080166553-evk3gk44d3i782c5oe3dmon4moeuqe23.apps.googleusercontent.com",
          "client_type": 1,
          "android_info": {
            "package_name": "com.example.monicayan.ewarp",
            "certificate_hash": "bd1858d0125876283c48afe0ee80b2726ffb183d"
          }
        },
        {
          "client_id": "526080166553-9ukqhbvs4elgvi5dvvl32jc2bio1qrsi.apps.googleusercontent.com",
          "client_type": 3
        }
      ],
      "api_key": [
        {
          "current_key": "AIzaSyCdSxayEVgv9F4twsP_jGNlkIKaLProDlA"
        }
      ],
      "services": {
        "appinvite_service": {
          "other_platform_oauth_client": [
            {
              "client_id": "526080166553-9ukqhbvs4elgvi5dvvl32jc2bio1qrsi.apps.googleusercontent.com",
              "client_type": 3
            }
          ]
        }
      }
    }
  ],
  "configuration_version": "1"
}